%YAML 1.1
%TAG !u! tag:unity3d.com,2011:
--- !u!1 &44414991677208708
GameObject:
  m_ObjectHideFlags: 0
  m_CorrespondingSourceObject: {fileID: 0}
  m_PrefabInstance: {fileID: 0}
  m_PrefabAsset: {fileID: 0}
  serializedVersion: 6
  m_Component:
  - component: {fileID: 7522331826978723367}
  m_Layer: 0
  m_Name: bip Head
  m_TagString: Untagged
  m_Icon: {fileID: 0}
  m_NavMeshLayer: 0
  m_StaticEditorFlags: 0
  m_IsActive: 1
--- !u!4 &7522331826978723367
Transform:
  m_ObjectHideFlags: 0
  m_CorrespondingSourceObject: {fileID: 0}
  m_PrefabInstance: {fileID: 0}
  m_PrefabAsset: {fileID: 0}
  m_GameObject: {fileID: 44414991677208708}
  serializedVersion: 2
  m_LocalRotation: {x: 0.0013058834, y: 0.00020719806, z: 0.17417392, w: 0.98471403}
  m_LocalPosition: {x: -0.064856716, y: 0, z: 0}
  m_LocalScale: {x: 1, y: 1, z: 1}
  m_ConstrainProportionsScale: 0
  m_Children: []
  m_Father: {fileID: 7447435231540333496}
  m_LocalEulerAnglesHint: {x: 0, y: 0, z: 0}
--- !u!1 &87634796983524727
GameObject:
  m_ObjectHideFlags: 0
  m_CorrespondingSourceObject: {fileID: 0}
  m_PrefabInstance: {fileID: 0}
  m_PrefabAsset: {fileID: 0}
  serializedVersion: 6
  m_Component:
  - component: {fileID: 1155386363641886731}
  m_Layer: 0
  m_Name: bip Pelvis
  m_TagString: Untagged
  m_Icon: {fileID: 0}
  m_NavMeshLayer: 0
  m_StaticEditorFlags: 0
  m_IsActive: 1
--- !u!4 &1155386363641886731
Transform:
  m_ObjectHideFlags: 0
  m_CorrespondingSourceObject: {fileID: 0}
  m_PrefabInstance: {fileID: 0}
  m_PrefabAsset: {fileID: 0}
  m_GameObject: {fileID: 87634796983524727}
  serializedVersion: 2
  m_LocalRotation: {x: -0.5, y: 0.5, z: 0.4999993, w: 0.5000007}
  m_LocalPosition: {x: -0, y: 0, z: 0}
  m_LocalScale: {x: 1, y: 1, z: 1}
  m_ConstrainProportionsScale: 0
  m_Children:
  - {fileID: 8937014894336195413}
  - {fileID: 5693824350865319471}
  - {fileID: 3388188842822207906}
  m_Father: {fileID: 8735127262622800594}
  m_LocalEulerAnglesHint: {x: 0, y: 0, z: 0}
--- !u!1 &423534112882414677
GameObject:
  m_ObjectHideFlags: 0
  m_CorrespondingSourceObject: {fileID: 0}
  m_PrefabInstance: {fileID: 0}
  m_PrefabAsset: {fileID: 0}
  serializedVersion: 6
  m_Component:
  - component: {fileID: 4867218877455598026}
  m_Layer: 0
  m_Name: rig_CharRoot
  m_TagString: Untagged
  m_Icon: {fileID: 0}
  m_NavMeshLayer: 0
  m_StaticEditorFlags: 0
  m_IsActive: 1
--- !u!4 &4867218877455598026
Transform:
  m_ObjectHideFlags: 0
  m_CorrespondingSourceObject: {fileID: 0}
  m_PrefabInstance: {fileID: 0}
  m_PrefabAsset: {fileID: 0}
  m_GameObject: {fileID: 423534112882414677}
  serializedVersion: 2
  m_LocalRotation: {x: -0.7071068, y: 0, z: -0, w: 0.7071068}
  m_LocalPosition: {x: -0, y: 0, z: 0}
  m_LocalScale: {x: 1, y: 1, z: 1}
  m_ConstrainProportionsScale: 0
  m_Children:
  - {fileID: 8735127262622800594}
  m_Father: {fileID: 5776691538091650739}
  m_LocalEulerAnglesHint: {x: 0, y: 0, z: 0}
--- !u!1 &491946417328528206
GameObject:
  m_ObjectHideFlags: 0
  m_CorrespondingSourceObject: {fileID: 0}
  m_PrefabInstance: {fileID: 0}
  m_PrefabAsset: {fileID: 0}
  serializedVersion: 6
  m_Component:
  - component: {fileID: 7248919305968283588}
  m_Layer: 0
  m_Name: bip R Foot
  m_TagString: Untagged
  m_Icon: {fileID: 0}
  m_NavMeshLayer: 0
  m_StaticEditorFlags: 0
  m_IsActive: 1
--- !u!4 &7248919305968283588
Transform:
  m_ObjectHideFlags: 0
  m_CorrespondingSourceObject: {fileID: 0}
  m_PrefabInstance: {fileID: 0}
  m_PrefabAsset: {fileID: 0}
  m_GameObject: {fileID: 491946417328528206}
  serializedVersion: 2
  m_LocalRotation: {x: -0.039689187, y: -0.036061045, z: -0.067112565, w: 0.9963033}
  m_LocalPosition: {x: -0.4096854, y: -0.0000000047683715, z: 0.000000019073486}
  m_LocalScale: {x: 1, y: 1, z: 1}
  m_ConstrainProportionsScale: 0
  m_Children:
  - {fileID: 4842630188094110811}
  m_Father: {fileID: 1222694453599453604}
  m_LocalEulerAnglesHint: {x: 0, y: 0, z: 0}
--- !u!1 &1003580621808749661
GameObject:
  m_ObjectHideFlags: 0
  m_CorrespondingSourceObject: {fileID: 0}
  m_PrefabInstance: {fileID: 0}
  m_PrefabAsset: {fileID: 0}
  serializedVersion: 6
  m_Component:
  - component: {fileID: 552293593818698762}
  m_Layer: 0
  m_Name: bip L Clavicle
  m_TagString: Untagged
  m_Icon: {fileID: 0}
  m_NavMeshLayer: 0
  m_StaticEditorFlags: 0
  m_IsActive: 1
--- !u!4 &552293593818698762
Transform:
  m_ObjectHideFlags: 0
  m_CorrespondingSourceObject: {fileID: 0}
  m_PrefabInstance: {fileID: 0}
  m_PrefabAsset: {fileID: 0}
  m_GameObject: {fileID: 1003580621808749661}
  serializedVersion: 2
  m_LocalRotation: {x: 0.7950628, y: 0.00031739255, z: -0.6065269, w: 0.00024039118}
  m_LocalPosition: {x: -0.24423072, y: -0.00039962766, z: 0.04458796}
  m_LocalScale: {x: 1, y: 1, z: 1}
  m_ConstrainProportionsScale: 0
  m_Children:
  - {fileID: 9195710936846732173}
  m_Father: {fileID: 8222133630650134420}
  m_LocalEulerAnglesHint: {x: 0, y: 0, z: 0}
--- !u!1 &1268520356158559943
GameObject:
  m_ObjectHideFlags: 0
  m_CorrespondingSourceObject: {fileID: 0}
  m_PrefabInstance: {fileID: 0}
  m_PrefabAsset: {fileID: 0}
  serializedVersion: 6
  m_Component:
  - component: {fileID: 4842630188094110811}
  m_Layer: 0
  m_Name: bip R Toe0
  m_TagString: Untagged
  m_Icon: {fileID: 0}
  m_NavMeshLayer: 0
  m_StaticEditorFlags: 0
  m_IsActive: 1
--- !u!4 &4842630188094110811
Transform:
  m_ObjectHideFlags: 0
  m_CorrespondingSourceObject: {fileID: 0}
  m_PrefabInstance: {fileID: 0}
  m_PrefabAsset: {fileID: 0}
  m_GameObject: {fileID: 1268520356158559943}
  serializedVersion: 2
  m_LocalRotation: {x: -0.0000000028257547, y: -0.0000000021196638, z: -0.7507482, w: 0.66058844}
  m_LocalPosition: {x: -0.13582811, y: 0.123979434, z: 0.0014570999}
  m_LocalScale: {x: 1, y: 1, z: 1}
  m_ConstrainProportionsScale: 0
  m_Children: []
  m_Father: {fileID: 7248919305968283588}
  m_LocalEulerAnglesHint: {x: 0, y: 0, z: 0}
--- !u!1 &1399944330421904753
GameObject:
  m_ObjectHideFlags: 0
  m_CorrespondingSourceObject: {fileID: 0}
  m_PrefabInstance: {fileID: 0}
  m_PrefabAsset: {fileID: 0}
  serializedVersion: 6
  m_Component:
  - component: {fileID: 8597852843620052028}
  m_Layer: 0
  m_Name: bip L Finger11
  m_TagString: Untagged
  m_Icon: {fileID: 0}
  m_NavMeshLayer: 0
  m_StaticEditorFlags: 0
  m_IsActive: 1
--- !u!4 &8597852843620052028
Transform:
  m_ObjectHideFlags: 0
  m_CorrespondingSourceObject: {fileID: 0}
  m_PrefabInstance: {fileID: 0}
  m_PrefabAsset: {fileID: 0}
  m_GameObject: {fileID: 1399944330421904753}
  serializedVersion: 2
  m_LocalRotation: {x: -4.3454804e-10, y: -0.0000000036998589, z: -0.1166481, w: 0.9931733}
  m_LocalPosition: {x: -0.03640362, y: 0, z: 0}
  m_LocalScale: {x: 1, y: 1, z: 1}
  m_ConstrainProportionsScale: 0
  m_Children: []
  m_Father: {fileID: 7509410125691068851}
  m_LocalEulerAnglesHint: {x: 0, y: 0, z: 0}
--- !u!1 &1540195690522179433
GameObject:
  m_ObjectHideFlags: 0
  m_CorrespondingSourceObject: {fileID: 0}
  m_PrefabInstance: {fileID: 0}
  m_PrefabAsset: {fileID: 0}
  serializedVersion: 6
  m_Component:
  - component: {fileID: 9195710936846732173}
  m_Layer: 0
  m_Name: bip L UpperArm
  m_TagString: Untagged
  m_Icon: {fileID: 0}
  m_NavMeshLayer: 0
  m_StaticEditorFlags: 0
  m_IsActive: 1
--- !u!4 &9195710936846732173
Transform:
  m_ObjectHideFlags: 0
  m_CorrespondingSourceObject: {fileID: 0}
  m_PrefabInstance: {fileID: 0}
  m_PrefabAsset: {fileID: 0}
  m_GameObject: {fileID: 1540195690522179433}
  serializedVersion: 2
  m_LocalRotation: {x: 0.14892283, y: -0.12413704, z: -0.016859692, w: 0.9808811}
  m_LocalPosition: {x: -0.13368812, y: -0.000000019073486, z: 0}
  m_LocalScale: {x: 1, y: 1, z: 1}
  m_ConstrainProportionsScale: 0
  m_Children:
  - {fileID: 7425450356639512097}
  m_Father: {fileID: 552293593818698762}
  m_LocalEulerAnglesHint: {x: 0, y: 0, z: 0}
--- !u!1 &1782628307030972140
GameObject:
  m_ObjectHideFlags: 0
  m_CorrespondingSourceObject: {fileID: 0}
  m_PrefabInstance: {fileID: 0}
  m_PrefabAsset: {fileID: 0}
  serializedVersion: 6
  m_Component:
  - component: {fileID: 4610878038570512951}
  m_Layer: 0
  m_Name: bip L Foot
  m_TagString: Untagged
  m_Icon: {fileID: 0}
  m_NavMeshLayer: 0
  m_StaticEditorFlags: 0
  m_IsActive: 1
--- !u!4 &4610878038570512951
Transform:
  m_ObjectHideFlags: 0
  m_CorrespondingSourceObject: {fileID: 0}
  m_PrefabInstance: {fileID: 0}
  m_PrefabAsset: {fileID: 0}
  m_GameObject: {fileID: 1782628307030972140}
  serializedVersion: 2
  m_LocalRotation: {x: 0.03968918, y: 0.03606096, z: -0.06711257, w: 0.9963033}
  m_LocalPosition: {x: -0.40968534, y: -0.000000009536743, z: 0}
  m_LocalScale: {x: 1, y: 1, z: 1}
  m_ConstrainProportionsScale: 0
  m_Children:
  - {fileID: 5933022293539841467}
  m_Father: {fileID: 4993227878045245097}
  m_LocalEulerAnglesHint: {x: 0, y: 0, z: 0}
--- !u!1 &1990538449600310206
GameObject:
  m_ObjectHideFlags: 0
  m_CorrespondingSourceObject: {fileID: 0}
  m_PrefabInstance: {fileID: 0}
  m_PrefabAsset: {fileID: 0}
  serializedVersion: 6
  m_Component:
  - component: {fileID: 1545863681537809533}
  m_Layer: 0
  m_Name: bip R Finger1
  m_TagString: Untagged
  m_Icon: {fileID: 0}
  m_NavMeshLayer: 0
  m_StaticEditorFlags: 0
  m_IsActive: 1
--- !u!4 &1545863681537809533
Transform:
  m_ObjectHideFlags: 0
  m_CorrespondingSourceObject: {fileID: 0}
  m_PrefabInstance: {fileID: 0}
  m_PrefabAsset: {fileID: 0}
  m_GameObject: {fileID: 1990538449600310206}
  serializedVersion: 2
  m_LocalRotation: {x: -0.0287645, y: -0.032915466, z: -0.06154403, w: 0.9971467}
  m_LocalPosition: {x: -0.07971813, y: -0.0025164795, z: -0.0041547585}
  m_LocalScale: {x: 1, y: 1, z: 1}
  m_ConstrainProportionsScale: 0
  m_Children:
  - {fileID: 1105937187048863935}
  m_Father: {fileID: 598612539395607761}
  m_LocalEulerAnglesHint: {x: 0, y: 0, z: 0}
--- !u!1 &2226181498645123577
GameObject:
  m_ObjectHideFlags: 0
  m_CorrespondingSourceObject: {fileID: 0}
  m_PrefabInstance: {fileID: 0}
  m_PrefabAsset: {fileID: 0}
  serializedVersion: 6
  m_Component:
  - component: {fileID: 8355105930134921408}
  m_Layer: 0
  m_Name: bip R Forearm
  m_TagString: Untagged
  m_Icon: {fileID: 0}
  m_NavMeshLayer: 0
  m_StaticEditorFlags: 0
  m_IsActive: 1
--- !u!4 &8355105930134921408
Transform:
  m_ObjectHideFlags: 0
  m_CorrespondingSourceObject: {fileID: 0}
  m_PrefabInstance: {fileID: 0}
  m_PrefabAsset: {fileID: 0}
  m_GameObject: {fileID: 2226181498645123577}
  serializedVersion: 2
  m_LocalRotation: {x: -0.000000007618127, y: 9.719915e-10, z: 0.1178008, w: 0.9930373}
  m_LocalPosition: {x: -0.23304097, y: -0.000000009536743, z: 0}
  m_LocalScale: {x: 1, y: 1, z: 1}
  m_ConstrainProportionsScale: 0
  m_Children:
  - {fileID: 598612539395607761}
  m_Father: {fileID: 4129138723440301582}
  m_LocalEulerAnglesHint: {x: 0, y: 0, z: 0}
--- !u!1 &2419625584889737813
GameObject:
  m_ObjectHideFlags: 0
  m_CorrespondingSourceObject: {fileID: 0}
  m_PrefabInstance: {fileID: 0}
  m_PrefabAsset: {fileID: 0}
  serializedVersion: 6
  m_Component:
  - component: {fileID: 8792896011043242391}
  m_Layer: 0
  m_Name: bip R Clavicle
  m_TagString: Untagged
  m_Icon: {fileID: 0}
  m_NavMeshLayer: 0
  m_StaticEditorFlags: 0
  m_IsActive: 1
--- !u!4 &8792896011043242391
Transform:
  m_ObjectHideFlags: 0
  m_CorrespondingSourceObject: {fileID: 0}
  m_PrefabInstance: {fileID: 0}
  m_PrefabAsset: {fileID: 0}
  m_GameObject: {fileID: 2419625584889737813}
  serializedVersion: 2
  m_LocalRotation: {x: 0.7950628, y: 0.00031571666, z: 0.6065269, w: -0.00024260122}
  m_LocalPosition: {x: -0.24423072, y: -0.00039936064, z: -0.04458796}
  m_LocalScale: {x: 1, y: 1, z: 1}
  m_ConstrainProportionsScale: 0
  m_Children:
  - {fileID: 4129138723440301582}
  m_Father: {fileID: 8222133630650134420}
  m_LocalEulerAnglesHint: {x: 0, y: 0, z: 0}
--- !u!1 &2420167951705207642
GameObject:
  m_ObjectHideFlags: 0
  m_CorrespondingSourceObject: {fileID: 0}
  m_PrefabInstance: {fileID: 0}
  m_PrefabAsset: {fileID: 0}
  serializedVersion: 6
  m_Component:
  - component: {fileID: 8937014894336195413}
  m_Layer: 0
  m_Name: bip L Thigh
  m_TagString: Untagged
  m_Icon: {fileID: 0}
  m_NavMeshLayer: 0
  m_StaticEditorFlags: 0
  m_IsActive: 1
--- !u!4 &8937014894336195413
Transform:
  m_ObjectHideFlags: 0
  m_CorrespondingSourceObject: {fileID: 0}
  m_PrefabInstance: {fileID: 0}
  m_PrefabAsset: {fileID: 0}
  m_GameObject: {fileID: 2420167951705207642}
  serializedVersion: 2
  m_LocalRotation: {x: -0.019222679, y: 0.9963445, z: 0.0729183, w: 0.040139046}
  m_LocalPosition: {x: 0.00000015258789, y: 0.00000018000603, z: 0.10009763}
  m_LocalScale: {x: 1, y: 1, z: 1}
  m_ConstrainProportionsScale: 0
  m_Children:
  - {fileID: 4993227878045245097}
  m_Father: {fileID: 1155386363641886731}
  m_LocalEulerAnglesHint: {x: 0, y: 0, z: 0}
--- !u!1 &2460919879808136687
GameObject:
  m_ObjectHideFlags: 0
  m_CorrespondingSourceObject: {fileID: 0}
  m_PrefabInstance: {fileID: 0}
  m_PrefabAsset: {fileID: 0}
  serializedVersion: 6
  m_Component:
  - component: {fileID: 7509410125691068851}
  m_Layer: 0
  m_Name: bip L Finger1
  m_TagString: Untagged
  m_Icon: {fileID: 0}
  m_NavMeshLayer: 0
  m_StaticEditorFlags: 0
  m_IsActive: 1
--- !u!4 &7509410125691068851
Transform:
  m_ObjectHideFlags: 0
  m_CorrespondingSourceObject: {fileID: 0}
  m_PrefabInstance: {fileID: 0}
  m_PrefabAsset: {fileID: 0}
  m_GameObject: {fileID: 2460919879808136687}
  serializedVersion: 2
  m_LocalRotation: {x: 0.028764503, y: 0.032915477, z: -0.061544016, w: 0.9971467}
  m_LocalPosition: {x: -0.07971821, y: -0.0025164795, z: 0.004154816}
  m_LocalScale: {x: 1, y: 1, z: 1}
  m_ConstrainProportionsScale: 0
  m_Children:
  - {fileID: 8597852843620052028}
  m_Father: {fileID: 4763208199959663761}
  m_LocalEulerAnglesHint: {x: 0, y: 0, z: 0}
--- !u!1 &2603972620682804514
GameObject:
  m_ObjectHideFlags: 0
  m_CorrespondingSourceObject: {fileID: 0}
  m_PrefabInstance: {fileID: 0}
  m_PrefabAsset: {fileID: 0}
  serializedVersion: 6
  m_Component:
  - component: {fileID: 8222133630650134420}
  m_Layer: 0
  m_Name: bip Spine1
  m_TagString: Untagged
  m_Icon: {fileID: 0}
  m_NavMeshLayer: 0
  m_StaticEditorFlags: 0
  m_IsActive: 1
--- !u!4 &8222133630650134420
Transform:
  m_ObjectHideFlags: 0
  m_CorrespondingSourceObject: {fileID: 0}
  m_PrefabInstance: {fileID: 0}
  m_PrefabAsset: {fileID: 0}
  m_GameObject: {fileID: 2603972620682804514}
  serializedVersion: 2
  m_LocalRotation: {x: -0.000000033162067, y: -0.00000074551804, z: 0.20043188, w: 0.97970766}
  m_LocalPosition: {x: -0.16152297, y: -0.0001817894, z: -4.762842e-10}
  m_LocalScale: {x: 1, y: 1, z: 1}
  m_ConstrainProportionsScale: 0
  m_Children:
  - {fileID: 552293593818698762}
  - {fileID: 7447435231540333496}
  - {fileID: 8792896011043242391}
  m_Father: {fileID: 3388188842822207906}
  m_LocalEulerAnglesHint: {x: 0, y: 0, z: 0}
--- !u!1 &3286278262836033177
GameObject:
  m_ObjectHideFlags: 0
  m_CorrespondingSourceObject: {fileID: 0}
  m_PrefabInstance: {fileID: 0}
  m_PrefabAsset: {fileID: 0}
  serializedVersion: 6
  m_Component:
  - component: {fileID: 8735127262622800594}
  m_Layer: 0
  m_Name: bip
  m_TagString: Untagged
  m_Icon: {fileID: 0}
  m_NavMeshLayer: 0
  m_StaticEditorFlags: 0
  m_IsActive: 1
--- !u!4 &8735127262622800594
Transform:
  m_ObjectHideFlags: 0
  m_CorrespondingSourceObject: {fileID: 0}
  m_PrefabInstance: {fileID: 0}
  m_PrefabAsset: {fileID: 0}
  m_GameObject: {fileID: 3286278262836033177}
  serializedVersion: 2
  m_LocalRotation: {x: 0, y: 0, z: 0.7071063, w: 0.70710725}
  m_LocalPosition: {x: -0, y: 0.016664496, z: 0.93859375}
  m_LocalScale: {x: 1, y: 1, z: 1}
  m_ConstrainProportionsScale: 0
  m_Children:
  - {fileID: 1155386363641886731}
  m_Father: {fileID: 4867218877455598026}
  m_LocalEulerAnglesHint: {x: 0, y: 0, z: 0}
--- !u!1 &3326998146500172616
GameObject:
  m_ObjectHideFlags: 0
  m_CorrespondingSourceObject: {fileID: 0}
  m_PrefabInstance: {fileID: 0}
  m_PrefabAsset: {fileID: 0}
  serializedVersion: 6
  m_Component:
  - component: {fileID: 4763208199959663761}
  m_Layer: 0
  m_Name: bip L Hand
  m_TagString: Untagged
  m_Icon: {fileID: 0}
  m_NavMeshLayer: 0
  m_StaticEditorFlags: 0
  m_IsActive: 1
--- !u!4 &4763208199959663761
Transform:
  m_ObjectHideFlags: 0
  m_CorrespondingSourceObject: {fileID: 0}
  m_PrefabInstance: {fileID: 0}
  m_PrefabAsset: {fileID: 0}
  m_GameObject: {fileID: 3326998146500172616}
  serializedVersion: 2
  m_LocalRotation: {x: -0.6930474, y: -0.13571665, z: -0.041587573, w: 0.70677924}
  m_LocalPosition: {x: -0.22851345, y: 0.000000019073486, z: 0.00000015258789}
  m_LocalScale: {x: 1, y: 1, z: 1}
  m_ConstrainProportionsScale: 0
  m_Children:
  - {fileID: 1151808576015711956}
  - {fileID: 7509410125691068851}
  m_Father: {fileID: 7425450356639512097}
  m_LocalEulerAnglesHint: {x: 0, y: 0, z: 0}
--- !u!1 &3776087000033695875
GameObject:
  m_ObjectHideFlags: 0
  m_CorrespondingSourceObject: {fileID: 0}
  m_PrefabInstance: {fileID: 0}
  m_PrefabAsset: {fileID: 0}
  serializedVersion: 6
  m_Component:
  - component: {fileID: 3388188842822207906}
  m_Layer: 0
  m_Name: bip Spine
  m_TagString: Untagged
  m_Icon: {fileID: 0}
  m_NavMeshLayer: 0
  m_StaticEditorFlags: 0
  m_IsActive: 1
--- !u!4 &3388188842822207906
Transform:
  m_ObjectHideFlags: 0
  m_CorrespondingSourceObject: {fileID: 0}
  m_PrefabInstance: {fileID: 0}
  m_PrefabAsset: {fileID: 0}
  m_GameObject: {fileID: 3776087000033695875}
  serializedVersion: 2
  m_LocalRotation: {x: -0.0000021380613, y: 0.00000079319375, z: -0.09280012, w: 0.9956848}
  m_LocalPosition: {x: -0.0358123, y: -0.0029653334, z: 0.000000018845167}
  m_LocalScale: {x: 1, y: 1, z: 1}
  m_ConstrainProportionsScale: 0
  m_Children:
  - {fileID: 8222133630650134420}
  m_Father: {fileID: 1155386363641886731}
  m_LocalEulerAnglesHint: {x: 0, y: 0, z: 0}
--- !u!1 &4075707165443484732
GameObject:
  m_ObjectHideFlags: 0
  m_CorrespondingSourceObject: {fileID: 0}
  m_PrefabInstance: {fileID: 0}
  m_PrefabAsset: {fileID: 0}
  serializedVersion: 6
  m_Component:
  - component: {fileID: 2674014487126270718}
  m_Layer: 0
  m_Name: bip R Finger0
  m_TagString: Untagged
  m_Icon: {fileID: 0}
  m_NavMeshLayer: 0
  m_StaticEditorFlags: 0
  m_IsActive: 1
--- !u!4 &2674014487126270718
Transform:
  m_ObjectHideFlags: 0
  m_CorrespondingSourceObject: {fileID: 0}
  m_PrefabInstance: {fileID: 0}
  m_PrefabAsset: {fileID: 0}
  m_GameObject: {fileID: 4075707165443484732}
  serializedVersion: 2
  m_LocalRotation: {x: -0.6159676, y: 0.17461225, z: -0.0009290451, w: 0.76817554}
  m_LocalPosition: {x: -0.035791434, y: 0.013158569, z: 0.035134066}
  m_LocalScale: {x: 1, y: 1, z: 1}
  m_ConstrainProportionsScale: 0
  m_Children:
  - {fileID: 994208397976959735}
  m_Father: {fileID: 598612539395607761}
  m_LocalEulerAnglesHint: {x: 0, y: 0, z: 0}
--- !u!1 &4338907783000657290
GameObject:
  m_ObjectHideFlags: 0
  m_CorrespondingSourceObject: {fileID: 0}
  m_PrefabInstance: {fileID: 0}
  m_PrefabAsset: {fileID: 0}
  serializedVersion: 6
  m_Component:
  - component: {fileID: 836423908718809661}
  m_Layer: 0
  m_Name: bip L Finger01
  m_TagString: Untagged
  m_Icon: {fileID: 0}
  m_NavMeshLayer: 0
  m_StaticEditorFlags: 0
  m_IsActive: 1
--- !u!4 &836423908718809661
Transform:
  m_ObjectHideFlags: 0
  m_CorrespondingSourceObject: {fileID: 0}
  m_PrefabInstance: {fileID: 0}
  m_PrefabAsset: {fileID: 0}
  m_GameObject: {fileID: 4338907783000657290}
  serializedVersion: 2
  m_LocalRotation: {x: 2.4037317e-10, y: 0.000000014899223, z: -0.016131168, w: 0.9998699}
  m_LocalPosition: {x: -0.041940726, y: -0.000000019073486, z: 0.00000015258789}
  m_LocalScale: {x: 1, y: 1, z: 1}
  m_ConstrainProportionsScale: 0
  m_Children: []
  m_Father: {fileID: 1151808576015711956}
  m_LocalEulerAnglesHint: {x: 0, y: 0, z: 0}
--- !u!1 &4651564094225602462
GameObject:
  m_ObjectHideFlags: 0
  m_CorrespondingSourceObject: {fileID: 0}
  m_PrefabInstance: {fileID: 0}
  m_PrefabAsset: {fileID: 0}
  serializedVersion: 6
  m_Component:
  - component: {fileID: 5933022293539841467}
  m_Layer: 0
  m_Name: bip L Toe0
  m_TagString: Untagged
  m_Icon: {fileID: 0}
  m_NavMeshLayer: 0
  m_StaticEditorFlags: 0
  m_IsActive: 1
--- !u!4 &5933022293539841467
Transform:
  m_ObjectHideFlags: 0
  m_CorrespondingSourceObject: {fileID: 0}
  m_PrefabInstance: {fileID: 0}
  m_PrefabAsset: {fileID: 0}
  m_GameObject: {fileID: 4651564094225602462}
  serializedVersion: 2
  m_LocalRotation: {x: 3.3656447e-10, y: -6.907744e-10, z: -0.7507482, w: 0.66058844}
  m_LocalPosition: {x: -0.13340713, y: 0.12397945, z: -0.0014570904}
  m_LocalScale: {x: 1, y: 1, z: 1}
  m_ConstrainProportionsScale: 0
  m_Children: []
  m_Father: {fileID: 4610878038570512951}
  m_LocalEulerAnglesHint: {x: 0, y: 0, z: 0}
--- !u!1 &4686815155569101717
GameObject:
  m_ObjectHideFlags: 0
  m_CorrespondingSourceObject: {fileID: 0}
  m_PrefabInstance: {fileID: 0}
  m_PrefabAsset: {fileID: 0}
  serializedVersion: 6
  m_Component:
  - component: {fileID: 4129138723440301582}
  m_Layer: 0
  m_Name: bip R UpperArm
  m_TagString: Untagged
  m_Icon: {fileID: 0}
  m_NavMeshLayer: 0
  m_StaticEditorFlags: 0
  m_IsActive: 1
--- !u!4 &4129138723440301582
Transform:
  m_ObjectHideFlags: 0
  m_CorrespondingSourceObject: {fileID: 0}
  m_PrefabInstance: {fileID: 0}
  m_PrefabAsset: {fileID: 0}
  m_GameObject: {fileID: 4686815155569101717}
  serializedVersion: 2
  m_LocalRotation: {x: -0.14892283, y: 0.12413673, z: -0.016859615, w: 0.98088115}
  m_LocalPosition: {x: -0.13368808, y: 0, z: 0.00000015258789}
  m_LocalScale: {x: 1, y: 1, z: 1}
  m_ConstrainProportionsScale: 0
  m_Children:
  - {fileID: 8355105930134921408}
  m_Father: {fileID: 8792896011043242391}
  m_LocalEulerAnglesHint: {x: 0, y: 0, z: 0}
--- !u!1 &5270210179890334170
GameObject:
  m_ObjectHideFlags: 0
  m_CorrespondingSourceObject: {fileID: 0}
  m_PrefabInstance: {fileID: 0}
  m_PrefabAsset: {fileID: 0}
  serializedVersion: 6
  m_Component:
  - component: {fileID: 7425450356639512097}
  m_Layer: 0
  m_Name: bip L Forearm
  m_TagString: Untagged
  m_Icon: {fileID: 0}
  m_NavMeshLayer: 0
  m_StaticEditorFlags: 0
  m_IsActive: 1
--- !u!4 &7425450356639512097
Transform:
  m_ObjectHideFlags: 0
  m_CorrespondingSourceObject: {fileID: 0}
  m_PrefabInstance: {fileID: 0}
  m_PrefabAsset: {fileID: 0}
  m_GameObject: {fileID: 5270210179890334170}
  serializedVersion: 2
  m_LocalRotation: {x: 2.468487e-10, y: -0.0000000020808855, z: 0.117800795, w: 0.9930373}
  m_LocalPosition: {x: -0.23304096, y: -0.000000009536743, z: 0}
  m_LocalScale: {x: 1, y: 1, z: 1}
  m_ConstrainProportionsScale: 0
  m_Children:
  - {fileID: 4763208199959663761}
  m_Father: {fileID: 9195710936846732173}
  m_LocalEulerAnglesHint: {x: 0, y: 0, z: 0}
--- !u!1 &6236530621967945356
GameObject:
  m_ObjectHideFlags: 0
  m_CorrespondingSourceObject: {fileID: 0}
  m_PrefabInstance: {fileID: 0}
  m_PrefabAsset: {fileID: 0}
  serializedVersion: 6
  m_Component:
  - component: {fileID: 1105937187048863935}
  m_Layer: 0
  m_Name: bip R Finger11
  m_TagString: Untagged
  m_Icon: {fileID: 0}
  m_NavMeshLayer: 0
  m_StaticEditorFlags: 0
  m_IsActive: 1
--- !u!4 &1105937187048863935
Transform:
  m_ObjectHideFlags: 0
  m_CorrespondingSourceObject: {fileID: 0}
  m_PrefabInstance: {fileID: 0}
  m_PrefabAsset: {fileID: 0}
  m_GameObject: {fileID: 6236530621967945356}
  serializedVersion: 2
  m_LocalRotation: {x: 0.0000000041344066, y: 0.000000003265311, z: -0.1166481, w: 0.9931733}
  m_LocalPosition: {x: -0.036403578, y: 0, z: 0}
  m_LocalScale: {x: 1, y: 1, z: 1}
  m_ConstrainProportionsScale: 0
  m_Children: []
  m_Father: {fileID: 1545863681537809533}
  m_LocalEulerAnglesHint: {x: 0, y: 0, z: 0}
--- !u!1 &6259232317210030452
GameObject:
  m_ObjectHideFlags: 0
  m_CorrespondingSourceObject: {fileID: 0}
  m_PrefabInstance: {fileID: 0}
  m_PrefabAsset: {fileID: 0}
  serializedVersion: 6
  m_Component:
  - component: {fileID: 1222694453599453604}
  m_Layer: 0
  m_Name: bip R Calf
  m_TagString: Untagged
  m_Icon: {fileID: 0}
  m_NavMeshLayer: 0
  m_StaticEditorFlags: 0
  m_IsActive: 1
--- !u!4 &1222694453599453604
Transform:
  m_ObjectHideFlags: 0
  m_CorrespondingSourceObject: {fileID: 0}
  m_PrefabInstance: {fileID: 0}
  m_PrefabAsset: {fileID: 0}
  m_GameObject: {fileID: 6259232317210030452}
  serializedVersion: 2
  m_LocalRotation: {x: -0.0000000050482942, y: -0.000000011664512, z: 0.08785824, w: 0.99613297}
  m_LocalPosition: {x: -0.38799945, y: -0.0000000023841857, z: -0.000000019073486}
  m_LocalScale: {x: 1, y: 1, z: 1}
  m_ConstrainProportionsScale: 0
  m_Children:
  - {fileID: 7248919305968283588}
  m_Father: {fileID: 5693824350865319471}
  m_LocalEulerAnglesHint: {x: 0, y: 0, z: 0}
--- !u!1 &6544766092426898695
GameObject:
  m_ObjectHideFlags: 0
  m_CorrespondingSourceObject: {fileID: 0}
  m_PrefabInstance: {fileID: 0}
  m_PrefabAsset: {fileID: 0}
  serializedVersion: 6
  m_Component:
  - component: {fileID: 4993227878045245097}
  m_Layer: 0
  m_Name: bip L Calf
  m_TagString: Untagged
  m_Icon: {fileID: 0}
  m_NavMeshLayer: 0
  m_StaticEditorFlags: 0
  m_IsActive: 1
--- !u!4 &4993227878045245097
Transform:
  m_ObjectHideFlags: 0
  m_CorrespondingSourceObject: {fileID: 0}
  m_PrefabInstance: {fileID: 0}
  m_PrefabAsset: {fileID: 0}
  m_GameObject: {fileID: 6544766092426898695}
  serializedVersion: 2
  m_LocalRotation: {x: -0.000000005757061, y: 0.0000000069717356, z: 0.08785824, w: 0.99613297}
  m_LocalPosition: {x: -0.3879994, y: 0, z: 0}
  m_LocalScale: {x: 1, y: 1, z: 1}
  m_ConstrainProportionsScale: 0
  m_Children:
  - {fileID: 4610878038570512951}
  m_Father: {fileID: 8937014894336195413}
  m_LocalEulerAnglesHint: {x: 0, y: 0, z: 0}
--- !u!1 &6584613354768528393
GameObject:
  m_ObjectHideFlags: 0
  m_CorrespondingSourceObject: {fileID: 0}
  m_PrefabInstance: {fileID: 0}
  m_PrefabAsset: {fileID: 0}
  serializedVersion: 6
  m_Component:
  - component: {fileID: 5776691538091650739}
  - component: {fileID: 489417422609642697}
  - component: {fileID: -4720535539113630595}
  - component: {fileID: 6199632462893845271}
  - component: {fileID: 5340308741463623581}
  m_Layer: 0
  m_Name: casual_Female_G
  m_TagString: Untagged
  m_Icon: {fileID: 0}
  m_NavMeshLayer: 0
  m_StaticEditorFlags: 0
  m_IsActive: 1
--- !u!4 &5776691538091650739
Transform:
  m_ObjectHideFlags: 0
  m_CorrespondingSourceObject: {fileID: 0}
  m_PrefabInstance: {fileID: 0}
  m_PrefabAsset: {fileID: 0}
  m_GameObject: {fileID: 6584613354768528393}
  serializedVersion: 2
  m_LocalRotation: {x: 0, y: 0, z: 0, w: 1}
  m_LocalPosition: {x: 0, y: 0, z: 0}
  m_LocalScale: {x: 1, y: 1, z: 1}
  m_ConstrainProportionsScale: 0
  m_Children:
  - {fileID: 7639862655790943378}
  - {fileID: 4867218877455598026}
  m_Father: {fileID: 0}
  m_LocalEulerAnglesHint: {x: 0, y: 0, z: 0}
--- !u!95 &489417422609642697
Animator:
  serializedVersion: 5
  m_ObjectHideFlags: 0
  m_CorrespondingSourceObject: {fileID: 0}
  m_PrefabInstance: {fileID: 0}
  m_PrefabAsset: {fileID: 0}
  m_GameObject: {fileID: 6584613354768528393}
  m_Enabled: 1
  m_Avatar: {fileID: 9000000, guid: efa7cf83928a3bd42935d7898c6fe1df, type: 3}
  m_Controller: {fileID: 9100000, guid: afe9de63454bbd448a9886ad5a285ae7, type: 2}
  m_CullingMode: 1
  m_UpdateMode: 0
  m_ApplyRootMotion: 0
  m_LinearVelocityBlending: 0
  m_StabilizeFeet: 0
  m_WarningMessage: 
  m_HasTransformHierarchy: 1
  m_AllowConstantClipSamplingOptimization: 1
  m_KeepAnimatorStateOnDisable: 0
  m_WriteDefaultValuesOnDisable: 0
--- !u!114 &-4720535539113630595
MonoBehaviour:
  m_ObjectHideFlags: 0
  m_CorrespondingSourceObject: {fileID: 0}
  m_PrefabInstance: {fileID: 0}
  m_PrefabAsset: {fileID: 0}
  m_GameObject: {fileID: 6584613354768528393}
  m_Enabled: 0
  m_EditorHideFlags: 0
  m_Script: {fileID: 11500000, guid: 54f141628068b9b4493f69f797f003b2, type: 3}
  m_Name: 
  m_EditorClassIdentifier: 
--- !u!114 &6199632462893845271
MonoBehaviour:
  m_ObjectHideFlags: 0
  m_CorrespondingSourceObject: {fileID: 0}
  m_PrefabInstance: {fileID: 0}
  m_PrefabAsset: {fileID: 0}
  m_GameObject: {fileID: 6584613354768528393}
  m_Enabled: 1
  m_EditorHideFlags: 0
  m_Script: {fileID: 11500000, guid: 3ff0d3a099a07fc48aa18bd09487d8e4, type: 3}
  m_Name: 
  m_EditorClassIdentifier: 
  waypointTag: Waypoint
  detectionRadius: 50
  speed: 0
  waypointWaitTime: 0
  randomWalkRadius: 10
  randomWalkInterval: 5
  queueJoinProbability: 0.1
  isWalk: 0
  IsIdle: 0
  inQueue: 0
--- !u!195 &5340308741463623581
NavMeshAgent:
  m_ObjectHideFlags: 0
  m_CorrespondingSourceObject: {fileID: 0}
  m_PrefabInstance: {fileID: 0}
  m_PrefabAsset: {fileID: 0}
  m_GameObject: {fileID: 6584613354768528393}
  m_Enabled: 1
  m_AgentTypeID: 0
  m_Radius: 0.5
  m_Speed: 2
  m_Acceleration: 8
  avoidancePriority: 50
  m_AngularSpeed: 120
  m_StoppingDistance: 0
  m_AutoTraverseOffMeshLink: 1
  m_AutoBraking: 1
  m_AutoRepath: 1
  m_Height: 2
  m_BaseOffset: 0
  m_WalkableMask: 4294967295
  m_ObstacleAvoidanceType: 4
--- !u!1 &6646269780412227657
GameObject:
  m_ObjectHideFlags: 0
  m_CorrespondingSourceObject: {fileID: 0}
  m_PrefabInstance: {fileID: 0}
  m_PrefabAsset: {fileID: 0}
  serializedVersion: 6
  m_Component:
  - component: {fileID: 994208397976959735}
  m_Layer: 0
  m_Name: bip R Finger01
  m_TagString: Untagged
  m_Icon: {fileID: 0}
  m_NavMeshLayer: 0
  m_StaticEditorFlags: 0
  m_IsActive: 1
--- !u!4 &994208397976959735
Transform:
  m_ObjectHideFlags: 0
  m_CorrespondingSourceObject: {fileID: 0}
  m_PrefabInstance: {fileID: 0}
  m_PrefabAsset: {fileID: 0}
  m_GameObject: {fileID: 6646269780412227657}
  serializedVersion: 2
  m_LocalRotation: {x: 0.000000007449611, y: -1.2018642e-10, z: -0.016131148, w: 0.9998699}
  m_LocalPosition: {x: -0.041940764, y: 0.000000019073486, z: 0}
  m_LocalScale: {x: 1, y: 1, z: 1}
  m_ConstrainProportionsScale: 0
  m_Children: []
  m_Father: {fileID: 2674014487126270718}
  m_LocalEulerAnglesHint: {x: 0, y: 0, z: 0}
--- !u!1 &7341904583192894241
GameObject:
  m_ObjectHideFlags: 0
  m_CorrespondingSourceObject: {fileID: 0}
  m_PrefabInstance: {fileID: 0}
  m_PrefabAsset: {fileID: 0}
  serializedVersion: 6
  m_Component:
  - component: {fileID: 7639862655790943378}
  - component: {fileID: 5621215944056097906}
  m_Layer: 0
  m_Name: casual_Female_G
  m_TagString: Untagged
  m_Icon: {fileID: 0}
  m_NavMeshLayer: 0
  m_StaticEditorFlags: 0
  m_IsActive: 1
--- !u!4 &7639862655790943378
Transform:
  m_ObjectHideFlags: 0
  m_CorrespondingSourceObject: {fileID: 0}
  m_PrefabInstance: {fileID: 0}
  m_PrefabAsset: {fileID: 0}
  m_GameObject: {fileID: 7341904583192894241}
  serializedVersion: 2
  m_LocalRotation: {x: -0.7071068, y: 0, z: -0, w: 0.7071068}
  m_LocalPosition: {x: -0, y: 0.049999997, z: 0}
  m_LocalScale: {x: 1, y: 1, z: 1}
  m_ConstrainProportionsScale: 0
  m_Children: []
  m_Father: {fileID: 5776691538091650739}
  m_LocalEulerAnglesHint: {x: 0, y: 0, z: 0}
--- !u!137 &5621215944056097906
SkinnedMeshRenderer:
  m_ObjectHideFlags: 0
  m_CorrespondingSourceObject: {fileID: 0}
  m_PrefabInstance: {fileID: 0}
  m_PrefabAsset: {fileID: 0}
  m_GameObject: {fileID: 7341904583192894241}
  m_Enabled: 1
  m_CastShadows: 1
  m_ReceiveShadows: 1
  m_DynamicOccludee: 1
  m_StaticShadowCaster: 0
  m_MotionVectors: 1
  m_LightProbeUsage: 1
  m_ReflectionProbeUsage: 1
  m_RayTracingMode: 3
  m_RayTraceProcedural: 0
  m_RenderingLayerMask: 1
  m_RendererPriority: 0
  m_Materials:
  - {fileID: 2100000, guid: 1a77ecb7d10f8e344a05c9cf5a49b8b4, type: 2}
  m_StaticBatchInfo:
    firstSubMesh: 0
    subMeshCount: 0
  m_StaticBatchRoot: {fileID: 0}
  m_ProbeAnchor: {fileID: 0}
  m_LightProbeVolumeOverride: {fileID: 0}
  m_ScaleInLightmap: 1
  m_ReceiveGI: 1
  m_PreserveUVs: 0
  m_IgnoreNormalsForChartDetection: 0
  m_ImportantGI: 0
  m_StitchLightmapSeams: 1
  m_SelectedEditorRenderState: 3
  m_MinimumChartSize: 4
  m_AutoUVMaxDistance: 0.5
  m_AutoUVMaxAngle: 89
  m_LightmapParameters: {fileID: 0}
  m_SortingLayerID: 0
  m_SortingLayer: 0
  m_SortingOrder: 0
  serializedVersion: 2
  m_Quality: 0
  m_UpdateWhenOffscreen: 0
  m_SkinnedMotionVectors: 1
  m_Mesh: {fileID: 6308948862318036768, guid: efa7cf83928a3bd42935d7898c6fe1df, type: 3}
  m_Bones:
  - {fileID: 1222694453599453604}
  - {fileID: 7248919305968283588}
  - {fileID: 5693824350865319471}
  - {fileID: 1155386363641886731}
  - {fileID: 3388188842822207906}
  - {fileID: 8937014894336195413}
  - {fileID: 8222133630650134420}
  - {fileID: 8792896011043242391}
  - {fileID: 4129138723440301582}
  - {fileID: 8355105930134921408}
  - {fileID: 598612539395607761}
  - {fileID: 2674014487126270718}
  - {fileID: 1105937187048863935}
  - {fileID: 1545863681537809533}
  - {fileID: 994208397976959735}
  - {fileID: 7447435231540333496}
  - {fileID: 7522331826978723367}
  - {fileID: 4842630188094110811}
  - {fileID: 552293593818698762}
  - {fileID: 4993227878045245097}
  - {fileID: 4610878038570512951}
  - {fileID: 9195710936846732173}
  - {fileID: 7425450356639512097}
  - {fileID: 4763208199959663761}
  - {fileID: 1151808576015711956}
  - {fileID: 8597852843620052028}
  - {fileID: 7509410125691068851}
  - {fileID: 836423908718809661}
  - {fileID: 5933022293539841467}
  m_BlendShapeWeights: []
  m_RootBone: {fileID: 1155386363641886731}
  m_AABB:
    m_Center: {x: 0.087696135, y: -0.008967981, z: 0.00000062584877}
    m_Extent: {x: 0.8674813, y: 0.22051503, z: 0.7852975}
  m_DirtyAABB: 0
--- !u!1 &7723605154298478785
GameObject:
  m_ObjectHideFlags: 0
  m_CorrespondingSourceObject: {fileID: 0}
  m_PrefabInstance: {fileID: 0}
  m_PrefabAsset: {fileID: 0}
  serializedVersion: 6
  m_Component:
  - component: {fileID: 5693824350865319471}
  m_Layer: 0
  m_Name: bip R Thigh
  m_TagString: Untagged
  m_Icon: {fileID: 0}
  m_NavMeshLayer: 0
  m_StaticEditorFlags: 0
  m_IsActive: 1
--- !u!4 &5693824350865319471
Transform:
  m_ObjectHideFlags: 0
  m_CorrespondingSourceObject: {fileID: 0}
  m_PrefabInstance: {fileID: 0}
  m_PrefabAsset: {fileID: 0}
  m_GameObject: {fileID: 7723605154298478785}
  serializedVersion: 2
  m_LocalRotation: {x: -0.01922273, y: 0.9963443, z: -0.07291967, w: -0.04014054}
  m_LocalPosition: {x: -0.00000015258789, y: -0.00000009894371, z: -0.10009763}
  m_LocalScale: {x: 1, y: 1, z: 1}
  m_ConstrainProportionsScale: 0
  m_Children:
  - {fileID: 1222694453599453604}
  m_Father: {fileID: 1155386363641886731}
  m_LocalEulerAnglesHint: {x: 0, y: 0, z: 0}
--- !u!1 &7988118379074168893
GameObject:
  m_ObjectHideFlags: 0
  m_CorrespondingSourceObject: {fileID: 0}
  m_PrefabInstance: {fileID: 0}
  m_PrefabAsset: {fileID: 0}
  serializedVersion: 6
  m_Component:
  - component: {fileID: 7447435231540333496}
  m_Layer: 0
  m_Name: bip Neck
  m_TagString: Untagged
  m_Icon: {fileID: 0}
  m_NavMeshLayer: 0
  m_StaticEditorFlags: 0
  m_IsActive: 1
--- !u!4 &7447435231540333496
Transform:
  m_ObjectHideFlags: 0
  m_CorrespondingSourceObject: {fileID: 0}
  m_PrefabInstance: {fileID: 0}
  m_PrefabAsset: {fileID: 0}
  m_GameObject: {fileID: 7988118379074168893}
  serializedVersion: 2
  m_LocalRotation: {x: -6.012045e-14, y: 0.00000077964387, z: -0.28109455, w: 0.9596801}
  m_LocalPosition: {x: -0.30668053, y: 0.01595808, z: 0.00000003721041}
  m_LocalScale: {x: 1, y: 1, z: 1}
  m_ConstrainProportionsScale: 0
  m_Children:
  - {fileID: 7522331826978723367}
  m_Father: {fileID: 8222133630650134420}
  m_LocalEulerAnglesHint: {x: 0, y: 0, z: 0}
--- !u!1 &8681390723120273396
GameObject:
  m_ObjectHideFlags: 0
  m_CorrespondingSourceObject: {fileID: 0}
  m_PrefabInstance: {fileID: 0}
  m_PrefabAsset: {fileID: 0}
  serializedVersion: 6
  m_Component:
  - component: {fileID: 1151808576015711956}
  m_Layer: 0
  m_Name: bip L Finger0
  m_TagString: Untagged
  m_Icon: {fileID: 0}
  m_NavMeshLayer: 0
  m_StaticEditorFlags: 0
  m_IsActive: 1
--- !u!4 &1151808576015711956
Transform:
  m_ObjectHideFlags: 0
  m_CorrespondingSourceObject: {fileID: 0}
  m_PrefabInstance: {fileID: 0}
  m_PrefabAsset: {fileID: 0}
  m_GameObject: {fileID: 8681390723120273396}
  serializedVersion: 2
  m_LocalRotation: {x: 0.6159676, y: -0.17461228, z: -0.0009290421, w: 0.76817554}
  m_LocalPosition: {x: -0.03579136, y: 0.013158569, z: -0.035134066}
  m_LocalScale: {x: 1, y: 1, z: 1}
  m_ConstrainProportionsScale: 0
  m_Children:
  - {fileID: 836423908718809661}
  m_Father: {fileID: 4763208199959663761}
  m_LocalEulerAnglesHint: {x: 0, y: 0, z: 0}
--- !u!1 &8870943199230065206
GameObject:
  m_ObjectHideFlags: 0
  m_CorrespondingSourceObject: {fileID: 0}
  m_PrefabInstance: {fileID: 0}
  m_PrefabAsset: {fileID: 0}
  serializedVersion: 6
  m_Component:
  - component: {fileID: 598612539395607761}
  m_Layer: 0
  m_Name: bip R Hand
  m_TagString: Untagged
  m_Icon: {fileID: 0}
  m_NavMeshLayer: 0
  m_StaticEditorFlags: 0
  m_IsActive: 1
--- !u!4 &598612539395607761
Transform:
  m_ObjectHideFlags: 0
  m_CorrespondingSourceObject: {fileID: 0}
  m_PrefabInstance: {fileID: 0}
  m_PrefabAsset: {fileID: 0}
  m_GameObject: {fileID: 8870943199230065206}
  serializedVersion: 2
  m_LocalRotation: {x: 0.6930474, y: 0.13571663, z: -0.041587584, w: 0.70677924}
  m_LocalPosition: {x: -0.22851345, y: 0, z: 0}
  m_LocalScale: {x: 1, y: 1, z: 1}
  m_ConstrainProportionsScale: 0
  m_Children:
  - {fileID: 2674014487126270718}
  - {fileID: 1545863681537809533}
  m_Father: {fileID: 8355105930134921408}
  m_LocalEulerAnglesHint: {x: 0, y: 0, z: 0}
