%YAML 1.1
%TAG !u! tag:unity3d.com,2011:
--- !u!162 &1
EditorUserSettings:
  m_ObjectHideFlags: 0
  serializedVersion: 4
  m_ConfigSettings:
    RecentlyUsedSceneGuid-0:
      value: 0202070701545a0a5a59542713775d441016407e7f78723375704831e6b26439
      flags: 0
    RecentlyUsedSceneGuid-1:
      value: 5a04570001020d5a58565a214073084413154f2c2a7a20352c7a4867e3b6646c
      flags: 0
    RecentlyUsedSceneGuid-2:
      value: 5b0752005301585f59565b7140770b4013161d2e757824327d714865e7b73668
      flags: 0
    RecentlyUsedSceneGuid-3:
      value: 5406515f01060d080c08587011210744434e49292d2977317d2c4e6ab1b2646f
      flags: 0
    RecentlyUsedSceneGuid-4:
      value: 5a5757560101590a5d0c0e24427b5d44434e4c7a7b7a23677f2b4565b7b5353a
      flags: 0
    RecentlyUsedSceneGuid-5:
      value: 5508005f07505e5f58575e2340775e434f4e1a7b2d2a76317f711e63b4b9626e
      flags: 0
    RecentlyUsedSceneGuid-6:
      value: 5a09005251515809550a5f2616775c14454e4073797b74642f7b4831b1b0606e
      flags: 0
    RecentlyUsedSceneGuid-7:
      value: 52520d05540c5b595b5a5c23487759154715402f297a7f64782a1f6bb6e13269
      flags: 0
    RecentlyUsedSceneGuid-8:
      value: 5a54555555540d0b58560f2115770a474e4f487c7d2d76357d2b1b6ae1b5663c
      flags: 0
    vcSharedLogLevel:
      value: 0d5e400f0650
      flags: 0
  m_VCAutomaticAdd: 1
  m_VCDebugCom: 0
  m_VCDebugCmd: 0
  m_VCDebugOut: 0
  m_SemanticMergeMode: 2
  m_DesiredImportWorkerCount: 2
  m_StandbyImportWorkerCount: 2
  m_IdleImportWorkerShutdownDelay: 60000
  m_VCShowFailedCheckout: 1
  m_VCOverwriteFailedCheckoutAssets: 1
  m_VCProjectOverlayIcons: 1
  m_VCHierarchyOverlayIcons: 1
  m_VCOtherOverlayIcons: 1
  m_VCAllowAsyncUpdate: 1
  m_ArtifactGarbageCollection: 1
